Case-Study 2: The State of the Union Presidential Speeches – Quantification in History - HIST1505/HIST1515
…
# Install/load packages
install.packages("tidytext")
library(tidyverse)
library(tidytext)

# Importing the data
speeches <- read_csv("data/state-of-the-union-texts.csv")

Inspecting the data

Let’s start by having a first look at the data itself typing the name of the object we just created (speeches). As shown below, the contents of the tidyverse have been nicely structured into a data frame containing 4 columns (different pieces of information) and 235 rows (one for each speech).

speeches

# A tibble: 219 × 4
   President          Year Title                              Text              
   <chr>             <dbl> <chr>                              <chr>             
 1 George Washington  1790 First State of the Union Address   "['I embrace with…
 2 George Washington  1790 Second State of the Union Address  "['Fellow-Citizen…
 3 George Washington  1791 Third State of the Union Address   "['Fellow-Citizen…
 4 George Washington  1792 Fourth State of the Union Address  "['Fellow-Citizen…
 5 George Washington  1793 Fifth State of the Union Address   "['Fellow Citizen…
 6 George Washington  1794 Sixth State of the Union Address   "['Fellow Citizen…
 7 George Washington  1795 Seventh State of the Union Address "['Fellow Citizen…
 8 George Washington  1796 Eighth State of the Union Address  "['Fellow Citizen…
 9 by John Adams      1797 First State of the Union Address   "['I was for some…
10 by John Adams      1798 Second State of the Union Address  "['Gentlemen of t…
# ℹ 209 more rows

We can use the functions we are already familiar with to continue exploring the data. We can see for instance that two speeches were delivered in 1790 (there is only one speech each year from then on), something we will need to take into account later.

speeches |>
  count(Year)

# A tibble: 216 × 2
    Year     n
   <dbl> <int>
 1  1790     2
 2  1791     1
 3  1792     1
 4  1793     1
 5  1794     1
 6  1795     1
 7  1796     1
 8  1797     1
 9  1798     1
10  1799     1
# ℹ 206 more rows

Looking at the column President (and sorting it out by those with higher counts) indicates that

speeches |> 
  count(President, sort = TRUE)

# A tibble: 41 × 2
   President                     n
   <chr>                     <int>
 1 Franklin Delano Roosevelt    12
 2 Dwight D. Eisenhower          9
 3 Andrew Jackson                8
 4 Barack Obama                  8
 5 Bill Clinton                  8
 6 George W. Bush                8
 7 George Washington             8
 8 Grover Cleveland              8
 9 Harry S. Truman               8
10 James Monroe                  8
# ℹ 31 more rows
…
Word counts

One possibility is to look at the number of times a particular term is mentioned in the corpus (or a set of terms). Let’s for instance count how many times de words “woman” and “women” show up in the presidential speeches. The code below uses mutate() to create two new variables woman and women indicating how many times those terms appear in the column Text. The actual computation is performed by the function str_count() (from the tidytext package). R goes through the text in that column and search for the string of characters indicated there. Although this is a very simplistic way of searching for terms, it serves as an illustration. Given that we are interested in both terms simultaneously, we can aggregate this information by constructing another column (sum_wom) summing both columns. We modify the existing object using the operator <-.

speeches <- speeches |>
  mutate(woman = str_count(Text, "woman"),
         women = str_count(Text, "women"),
         sum_wom = woman + women)

Typing the name of the object shows the results. We have basically added columns indicating how many times those terms show up in each speech.

speeches

# A tibble: 219 × 7
   President          Year Title                       Text  woman women sum_wom
   <chr>             <dbl> <chr>                       <chr> <int> <int>   <int>
 1 George Washington  1790 First State of the Union A… "['I…     0     0       0
 2 George Washington  1790 Second State of the Union … "['F…     0     0       0
 3 George Washington  1791 Third State of the Union A… "['F…     0     0       0
 4 George Washington  1792 Fourth State of the Union … "['F…     0     0       0
 5 George Washington  1793 Fifth State of the Union A… "['F…     0     0       0
 6 George Washington  1794 Sixth State of the Union A… "['F…     0     0       0
 7 George Washington  1795 Seventh State of the Union… "['F…     0     1       1
 8 George Washington  1796 Eighth State of the Union … "['F…     0     0       0
 9 by John Adams      1797 First State of the Union A… "['I…     0     0       0
10 by John Adams      1798 Second State of the Union … "['G…     0     0       0
# ℹ 209 more rows
…
Top frequencies

Instead of searching for particular words (or set or words), we may want to adopt a more agnostic position and ask which words are most common in the speeches. This can be achieved by tokenizing the texts. This tool is actually used in many other applications, so it is important to see how it works.

Basically, tokenizing splits the text into individual words (it also removes all of the punctuation and converts everything into lowercase characters). This is achieved with the function unnest_tokens() (which is part of the tidytext package). Apart from the object that contains the corpus we are exploring, this command requires two arguments: the column we want to tokenise (Text) and the name of the new column that will contain all the tokens (words in this case but it is up to you).

data_token <- speeches |> 
  unnest_tokens(output = words, input = Text)

As evident below, this tool transform the original corpus into a new dataframe when each row refers to each token, while preserving the metadata associated to them (speech, president, year, etc.). In total, we have almost 1.8 million tokens in this corpus.

data_token |> select(President, Year, words)

# A tibble: 1,766,436 × 3
   President          Year words       
   <chr>             <dbl> <chr>       
 1 George Washington  1790 i           
 2 George Washington  1790 embrace     
 3 George Washington  1790 with        
 4 George Washington  1790 great       
 5 George Washington  1790 satisfaction
 6 George Washington  1790 the         
 7 George Washington  1790 opportunity 
 8 George Washington  1790 which       
 9 George Washington  1790 now         
10 George Washington  1790 presents    
# ℹ 1,766,426 more rows

Once the data is expressed in this way, the column words contain all tokens mentioned in the speeches. These categories are basically qualitative information and can therefore be treated with the same tools we learned in the previous session. For instance, we can simply count() the number of times each category (token) is mentioned. Sorting the results by those with the highest frequencies (sort = TRUE) immediately indicates which tokens are the most common.

data_token |> 
  count(words, sort = TRUE) %>% 
  print(n = 20)

# A tibble: 29,713 × 2
   words      n
   <chr>  <int>
 1 the   149869
 2 of     96455
 3 to     60068
 4 and    60026
 5 in     38369
 6 a      27709
 7 that   21490
 8 for    18917
 9 be     18541
10 is     16993
11 our    16933
12 it     14967
13 by     14793
14 which  12197
15 as     12081
16 this   12062
17 with   11816
18 have   11800
19 we     11781
20 i       9356
# ℹ 29,693 more rows

The problem with this approach is that the most common words have little meaning (at least in terms of illustrating which topics are mentioned). Luckily, there is a simple solution, namely to get rid of those words that are so common that we are not interested in them, known as stop words. In fact there is a list of stop words already built within the tidy environment. Calling this object helps clarifying what stop words actually are: articles, prepositions, etc. We are not covering it but not only are there different lists of stop words (and in many different languages), but you can also modify them (add/remove terms) or create your own list from scratch).

stop_words |>   
  print(n = 25)

# A tibble: 1,149 × 2
   word        lexicon
   <chr>       <chr>  
 1 a           SMART  
 2 a's         SMART  
 3 able        SMART  
 4 about       SMART  
 5 above       SMART  
 6 according   SMART  
 7 accordingly SMART  
 8 across      SMART  
 9 actually    SMART  
10 after       SMART  
11 afterwards  SMART  
12 again       SMART  
13 against     SMART  
14 ain't       SMART  
15 all         SMART  
16 allow       SMART  
17 allows      SMART  
18 almost      SMART  
19 alone       SMART  
20 along       SMART  
21 already     SMART  
22 also        SMART  
23 although    SMART  
24 always      SMART  
25 am          SMART  
# ℹ 1,124 more rows

The trick now is to take this list of stop words and use it to exclude those terms from the tokenised version of the presidential speeches. In order to do so, we take the corpus and use anti_join() to drop the terms that match with the list of stop words. Note that the argument by defines which fields contain the terms to be matched (word in the object data_toke and words in the object stop_words).

data_token <- data_token |>
  anti_join(stop_words, by = c("words" = "word"))
data_token |> select(Year, President, words)

# A tibble: 696,002 × 3
    Year President         words         
   <dbl> <chr>             <chr>         
 1  1790 George Washington embrace       
 2  1790 George Washington satisfaction  
 3  1790 George Washington opportunity   
 4  1790 George Washington congratulating
 5  1790 George Washington favourable    
 6  1790 George Washington prospects     
 7  1790 George Washington public        
 8  1790 George Washington affairs       
 9  1790 George Washington recent        
10  1790 George Washington accession     
# ℹ 695,992 more rows

The resulting object no longer contains those stop words. We can now proceed counting these categories again. The most common terms are now much more informative.

data_token |> 
  count(words, sort = TRUE) |>  
  print(n = 20)

# A tibble: 29,031 × 2
   words          n
   <chr>      <int>
 1 government  6830
 2 congress    5083
 3 united      4784
 4 people      3884
 5 country     3374
 6 public      3000
 7 time        2820
 8 war         2732
 9 american    2640
10 world       2307
11 law         2124
12 national    2122
13 power       1938
14 act         1860
15 nation      1831
16 peace       1796
17 nations     1782
18 citizens    1780
19 service     1742
20 system      1650
# ℹ 29,011 more rows
…
Key-words in context

Likewise, instead of splitting the corpus into 1-gram tokens, tokenising may involve creating multiple-word tokens: 2-grams, 3-grams, etc. As above, the code below uses unnest_tokens() again but it now indicates that we want 5-gram tokens (n = 5). The output shows how the corpus has been split into 5-token grams.

data_token2 <- speeches |>
  unnest_tokens(window, Text, token = "ngrams", n = 5)
data_token2 |> select(President, Year, window)

# A tibble: 1,765,560 × 3
   President          Year window                                  
   <chr>             <dbl> <chr>                                   
 1 George Washington  1790 i embrace with great satisfaction       
 2 George Washington  1790 embrace with great satisfaction the     
 3 George Washington  1790 with great satisfaction the opportunity 
 4 George Washington  1790 great satisfaction the opportunity which
 5 George Washington  1790 satisfaction the opportunity which now  
 6 George Washington  1790 the opportunity which now presents      
 7 George Washington  1790 opportunity which now presents itself   
 8 George Washington  1790 which now presents itself of            
 9 George Washington  1790 now presents itself of congratulating   
10 George Washington  1790 presents itself of congratulating you   
# ℹ 1,765,550 more rows

We can now focus only on those ngrams (windows) mentioning particular terms. Imagine, for instance, that we are not only interested in how many times the word “women” (or “woman”) is mentioned, but also in which context. The code below implements such analysis (we could have expanded the “window” to more terms if we wished).

women <- data_token2 |> 
  separate_wider_delim(cols = window, delim = " ", 
                       names = c("g1", "g2", "g3", "g4", "g5")) |>
  filter(g3=="women" | g3=="woman") |> 
  select(President, Year, g1, g2, g3, g4, g5)
women

# A tibble: 344 × 7
   President          Year g1               g2       g3    g4       g5          
   <chr>             <dbl> <chr>            <chr>    <chr> <chr>    <chr>       
 1 George Washington  1795 of               innocent women and      children    
 2 Abraham Lincoln    1862 indiscriminately men      women and      children    
 3 Ulysses S. Grant   1871 of               men      women and      children    
 4 Ulysses S. Grant   1873 of               american women marrying foreigners  
 5 Ulysses S. Grant   1874 to               chinese  women hardly   a           
 6 Ulysses S. Grant   1874 of               american women who      have        
 7 Ulysses S. Grant   1875 of               american women who      may         
 8 Ulysses S. Grant   1875 of               chinese  women but      few         
 9 Ulysses S. Grant   1875 importation      of       women for      illegitimate
10 Ulysses S. Grant   1876 of               american women who      may         
# ℹ 334 more rows

As well as to learn more about the general context in which these terms appear, this type of multiple-word tokens are very useful to identify the most common (or rare) terms that are mentioned accompanying particular words. The code below builds on the previous object, puts all the accommpanying words in the same column (but keeping the information about their position) and removes stop words.

women <- women |>
  select(-g3) |>
  pivot_longer(cols = c("g1", "g2", "g4", "g5"),
               names_to = "order") |>
  rename(words = value) |>
  anti_join(stop_words, by = c("words" = "word")) 
women

# A tibble: 365 × 4
   President          Year order words           
   <chr>             <dbl> <chr> <chr>           
 1 George Washington  1795 g2    innocent        
 2 George Washington  1795 g5    children        
 3 Abraham Lincoln    1862 g1    indiscriminately
 4 Abraham Lincoln    1862 g5    children        
 5 Ulysses S. Grant   1871 g5    children        
 6 Ulysses S. Grant   1873 g2    american        
 7 Ulysses S. Grant   1873 g4    marrying        
 8 Ulysses S. Grant   1873 g5    foreigners      
 9 Ulysses S. Grant   1874 g2    chinese         
10 Ulysses S. Grant   1874 g2    american        
# ℹ 355 more rows

Identifying which terms are most commonly mentioned around women in the straightforward. Here, we take into account all of them, regardless where the were mentioned but we could use the info on the column order to qualify this analysis.

women |> 
  count(words, sort=TRUE)

# A tibble: 252 × 2
   words          n
   <chr>      <int>
 1 children      23
 2 uniform       14
 3 american       8
 4 pregnant       8
 5 servicemen     6
 6 child          5
 7 serving        5
 8 america        4
 9 employment     4
10 industry       4
# ℹ 242 more rows
…
